{
  "errors": [
    {
      "status": "403",
      "source": { "pointer": "/data/attributes/secretPowers" },
      "detail": "Editing secret powers is not authorized on Sundays."
    },
    {
      "status": "500",
      "source": { "pointer": "/data/attributes/reputation" },
      "title": "The backend responded with an error",
      "detail": "Reputation service not responding after three requests."
    }
  ]
}
